<svg width="20" height="20" viewBox="0 0 20 20" fill="none" xmlns="http://www.w3.org/2000/svg">
<path d="M10 3.33331C5.83337 3.33331 2.27504 5.92498 0.833374 9.58331C2.27504 13.2416 5.83337 15.8333 10 15.8333C14.1667 15.8333 17.725 13.2416 19.1667 9.58331C17.725 5.92498 14.1667 3.33331 10 3.33331ZM10 13.75C7.70004 13.75 5.83337 11.8833 5.83337 9.58331C5.83337 7.28331 7.70004 5.41665 10 5.41665C12.3 5.41665 14.1667 7.28331 14.1667 9.58331C14.1667 11.8833 12.3 13.75 10 13.75ZM10 7.08331C8.61671 7.08331 7.50004 8.19998 7.50004 9.58331C7.50004 10.9666 8.61671 12.0833 10 12.0833C11.3834 12.0833 12.5 10.9666 12.5 9.58331C12.5 8.19998 11.3834 7.08331 10 7.08331Z" fill="white"/>
</svg>
